chi2,events
0,8
5,82885
10,147458
15,188638
20,215563
25,234204
30,247644
35,258049
40,266158
45,272824
50,278342
55,283102
60,287155
65,290782
70,293971
75,296718
80,299235
85,301520
90,303606
95,305587
100,307342
105,309042
110,310521
115,311938
120,313296
125,314570
130,315789
135,316863
140,317869
145,318902
150,319821
155,320721
160,321619
165,322470
170,323260
175,323975
180,324740
185,325400
190,326079
195,326769
200,327374
