dvz,events
0,211958
0.2,211400
0.4,210748
0.6,209980
0.8,209061
1,208014
1.2,206857
1.4,205591
1.6,204075
1.8,202441
2,200772
2.2,198963
2.4,197109
2.6,195166
2.8,193144
3,191024
3.2,188855
3.4,186655
3.6,184443
3.8,182129
4,179751
4.2,177294
4.4,174807
4.6,172329
4.8,169781
5,167292
5.2,164762
5.4,162161
5.6,159597
5.8,157040
6,154545
6.2,152055
6.4,149528
6.6,147049
6.8,144515
7,142064
7.2,139504
7.4,137047
7.6,134609
7.8,132208
8,129747
8.2,127391
8.4,125023
8.6,122694
8.8,120375
9,118148
9.2,115869
9.4,113586
9.6,111429
9.8,109318
10,107154
