#restgasthickness from integral over pressure profile in 10^12 atoms/cm^2 
#pressure profile from monte-carlo simulation with 0.01mbar*l/s gasload at IP
#each thickness value for the range between z and z-1
#assumed target density in the interaction point 1*10^15 atmons/cm^2 (z=-1cm to z=0cm to z=1cm each 5*10^14)
#
#"Normal IP" is the original PANDA IP geometry with 140mm upstream beam pipe
#"Big Ip" is the umpstream beam pipe with 140 mm diameter pulled through to z=6cm
#
#Z/cm	NormalIP+Cryo/10^12atoms/cm^2
-5.701000000000000227e+02 0.000000000000000000e+00
-5.644015000000000555e+02 1.559615898396199407e-02
-5.587029999999999745e+02 1.486753378405804640e-02
-5.530045000000000073e+02 1.458620271557634768e-02
-5.473060000000000400e+02 1.498391650941189278e-02
-5.416075000000000728e+02 1.451593336844438087e-02
-5.359089999999999918e+02 1.566515993132654508e-02
-5.302105000000000246e+02 1.592667577676962209e-02
-5.245120000000000573e+02 1.711122022651724237e-02
-5.188134999999999764e+02 1.751527601919176252e-02
-5.131150000000000091e+02 1.836845807628625579e-02
-5.074165000000000418e+02 1.862109512335556605e-02
-5.017180000000000177e+02 1.925191260783765471e-02
-4.960194999999999936e+02 1.997112346279923678e-02
-4.903210000000000264e+02 2.016073513474317055e-02
-4.846225000000000023e+02 2.030133020233031507e-02
-4.789240000000000350e+02 2.062206622359550809e-02
-4.732255000000000109e+02 2.144599052604836964e-02
-4.675270000000000437e+02 2.100684233980025864e-02
-4.618285000000000196e+02 2.177163102641563666e-02
-4.561299999999999955e+02 2.174031564548358289e-02
-4.504315000000000282e+02 2.197728090875589874e-02
-4.447330000000000041e+02 2.237541750251424710e-02
-4.390344999999999800e+02 2.305068535218953232e-02
-4.333360000000000127e+02 2.275709308595322278e-02
-4.276375000000000455e+02 2.291995561612911528e-02
-4.219390000000000214e+02 2.235264268001820390e-02
-4.162404999999999973e+02 2.159168737936771262e-02
-4.105420000000000300e+02 2.189824550989587573e-02
-4.048435000000000059e+02 2.142479415659661116e-02
-3.991449999999999818e+02 2.089367289385789250e-02
-3.934465000000000146e+02 1.980733077279348345e-02
-3.877480000000000473e+02 1.857190939902934185e-02
-3.820495000000000232e+02 1.752748084362325265e-02
-3.763509999999999991e+02 1.652304916089257503e-02
-3.706525000000000318e+02 1.550131086799767105e-02
-3.649540000000000077e+02 1.380582680514905701e-02
-3.592554999999999836e+02 1.224104429169897701e-02
-3.535570000000000164e+02 1.060957213712795770e-02
-3.478585000000000491e+02 7.126800054908673070e-03
-3.421600000000000250e+02 5.137667352500886395e-03
-3.364615000000000009e+02 4.743335958045934685e-03
-3.307630000000000337e+02 5.106408344891790255e-03
-3.250645000000000664e+02 5.834582558211956309e-03
-3.193659999999999854e+02 8.121732832712320535e-03
-3.136675000000000182e+02 1.135711058690206006e-02
-3.079689999999999941e+02 1.542295194901392545e-02
-3.022705000000000268e+02 2.355835531255585577e-02
-2.965720000000000027e+02 3.609555685668810326e-02
-2.908735000000000355e+02 5.770796143226142316e-02
-2.851750000000000114e+02 8.989825633743231403e-02
-2.794764999999999873e+02 1.541195915102697711e-01
-2.737780000000000200e+02 2.738861255780877801e-01
-2.680794999999999959e+02 5.265775729041111131e-01
-2.623810000000000286e+02 7.715844907040161349e-01
-2.566825000000000045e+02 9.062800900379676117e-01
-2.509839999999999804e+02 1.004578253370504992e+00
-2.452855000000000132e+02 1.109226871540108128e+00
-2.395869999999999891e+02 1.213734556402208176e+00
-2.338885000000000218e+02 1.314188999339864772e+00
-2.281899999999999977e+02 1.415534140781106176e+00
-2.224915000000000305e+02 1.520323692258229942e+00
-2.167930000000000064e+02 1.617550762453592084e+00
-2.110944999999999823e+02 1.721015540839996527e+00
-2.053960000000000150e+02 1.819203776192645616e+00
-1.996975000000000477e+02 1.921470621465086515e+00
-1.939990000000000236e+02 2.019633488822419221e+00
-1.883004999999999995e+02 2.115532967260881136e+00
-1.826019999999999754e+02 2.217842092525580178e+00
-1.769035000000000082e+02 2.320672671028098044e+00
-1.712050000000000409e+02 2.416363568171421949e+00
-1.655065000000000168e+02 2.515746917971926067e+00
-1.598079999999999927e+02 2.621010005362349293e+00
-1.541094999999999686e+02 2.716106163947918706e+00
-1.484110000000000014e+02 2.817409025396861111e+00
-1.427125000000000341e+02 2.922759491437948220e+00
-1.370140000000000100e+02 3.017128434156717276e+00
-1.313154999999999859e+02 3.122715668154448121e+00
-1.256170000000000186e+02 3.218916743870981811e+00
-1.199184999999999945e+02 3.318021045722593154e+00
-1.142200000000000273e+02 3.414926787976750422e+00
-1.085215000000000600e+02 3.516962502624849218e+00
-1.028229999999999791e+02 3.617560697536266634e+00
-9.712450000000001182e+01 3.716552252741753382e+00
-9.142599999999998772e+01 3.814134474872100888e+00
-8.572750000000002046e+01 3.914084376568792489e+00
-8.002900000000005321e+01 4.015443611340772101e+00
-7.433049999999997226e+01 4.122045565152763658e+00
-6.863200000000000500e+01 4.218782187437840392e+00
-6.293349999999998090e+01 4.310980757220737480e+00
-5.723500000000001364e+01 4.406223486446089410e+00
-5.153650000000004638e+01 4.508400134401713721e+00
-4.583799999999996544e+01 4.614917528229200094e+00
-4.013949999999999818e+01 4.712922550281993139e+00
-3.444100000000003092e+01 4.815409251514171984e+00
-2.874250000000006366e+01 4.906508541498332043e+00
-2.304399999999998272e+01 4.987855246601861303e+00
-1.734550000000001546e+01 5.056799820642990717e+00
-1.164700000000004820e+01 5.297739403187729401e+00
-5.948499999999967258e+00 7.054924068071064980e+00
-1.000000000000000056e-01 2.113226731403879555e+01
0.000000000000000000e+00 5.000000000000000000e+02
1.000000000000000000e+00 5.000000000000000000e+02
1.219999999999999973e+00 8.289720643687998880e-01
1.439999999999999947e+00 8.226790465629997273e-01
1.660000000000000142e+00 8.132237410616006690e-01
1.879999999999999893e+00 8.051330290805991385e-01
2.100000000000000089e+00 7.915197396546006514e-01
2.320000000000000284e+00 7.861342744772008562e-01
2.540000000000000036e+00 7.783928723207991229e-01
2.759999999999999787e+00 7.689908882567991766e-01
2.979999999999999982e+00 7.655946391522008287e-01
3.200000000000000178e+00 7.561012469098007394e-01
3.419999999999999929e+00 7.508028371403991930e-01
3.640000000000000124e+00 7.497331438146005445e-01
3.859999999999999876e+00 7.371895477143990405e-01
4.080000000000000071e+00 7.297517512934005302e-01
4.299999999999999822e+00 7.261977142617990211e-01
4.519999999999999574e+00 7.203824130073991361e-01
4.740000000000000213e+00 7.129652922458019626e-01
4.959999999999999964e+00 7.115647883695991327e-01
5.179999999999999716e+00 7.065645433725991076e-01
5.400000000000000355e+00 7.010974637502020990e-01
5.620000000000000107e+00 6.902079204019991865e-01
5.839999999999999858e+00 6.884309018861991536e-01
6.059999999999999609e+00 6.838572283883991298e-01
6.280000000000000249e+00 6.797830352940019694e-01
6.500000000000000000e+00 6.820029481979992259e-01
6.719999999999999751e+00 6.687857608783991381e-01
6.940000000000000391e+00 6.667181949384020090e-01
7.160000000000000142e+00 6.601846865679992238e-01
7.379999999999999893e+00 6.579538917379992302e-01
7.599999999999999645e+00 6.509981646387992260e-01
7.820000000000000284e+00 6.483320927688018820e-01
8.039999999999999147e+00 6.447715265815967545e-01
8.259999999999999787e+00 6.374610486948018018e-01
8.480000000000000426e+00 6.362422729828018930e-01
8.699999999999999289e+00 6.325543882613966495e-01
8.919999999999999929e+00 6.254669898576017406e-01
9.140000000000000568e+00 6.239685486474018106e-01
9.359999999999999432e+00 6.187952810269967685e-01
9.580000000000000071e+00 6.093867678074017524e-01
9.800000000000000711e+00 6.127068434300017019e-01
1.001999999999999957e+01 6.073659941491968972e-01
1.024000000000000021e+01 6.005887306364017242e-01
1.046000000000000085e+01 6.004255017464017463e-01
1.067999999999999972e+01 5.976397286903968320e-01
1.090000000000000036e+01 5.905425365532017690e-01
1.111999999999999922e+01 5.867458325717969103e-01
1.133999999999999986e+01 5.852539205172017089e-01
1.156000000000000050e+01 5.790011658376017500e-01
1.177999999999999936e+01 5.709093656639969705e-01
1.200000000000000000e+01 5.655608990350016185e-01
1.222000000000000064e+01 5.656229260132016323e-01
1.243999999999999950e+01 5.644117676493971558e-01
1.266000000000000014e+01 5.581383373104016332e-01
1.288000000000000078e+01 5.525439391538015110e-01
1.309999999999999964e+01 5.473826416519971261e-01
1.332000000000000028e+01 5.446697775002016240e-01
1.353999999999999915e+01 5.441626797485972222e-01
1.375999999999999979e+01 5.400634582244016046e-01
1.398000000000000043e+01 5.344995294606015301e-01
1.419999999999999929e+01 5.282445983957972935e-01
1.441999999999999993e+01 5.275176857390014851e-01
1.464000000000000057e+01 5.238156545138015208e-01
1.485999999999999943e+01 5.226055843425972958e-01
1.508000000000000007e+01 5.195249110920013846e-01
1.530000000000000071e+01 5.072446576010014585e-01
1.551999999999999957e+01 5.085167547503974816e-01
1.574000000000000021e+01 5.030148529648014177e-01
1.596000000000000085e+01 4.986087611274014342e-01
1.617999999999999972e+01 4.952973910455973905e-01
1.639999999999999858e+01 4.876158394821973885e-01
1.661999999999999744e+01 4.846407209137975070e-01
1.683999999999999986e+01 4.790582928758053138e-01
1.705999999999999872e+01 4.817972736499974706e-01
1.728000000000000114e+01 4.690447445706051322e-01
1.750000000000000000e+01 4.700654692293975701e-01
1.771999999999999886e+01 4.651936309591975793e-01
1.794000000000000128e+01 4.589517582056050760e-01
1.816000000000000014e+01 4.530504897357976457e-01
1.837999999999999901e+01 4.519960311063976333e-01
1.860000000000000142e+01 4.449184264360048768e-01
1.882000000000000028e+01 4.431370551497977317e-01
1.903999999999999915e+01 4.360953608351977318e-01
1.926000000000000156e+01 4.295901454724047053e-01
1.948000000000000043e+01 4.265290596885977781e-01
1.969999999999999929e+01 4.245703130085978216e-01
1.992000000000000171e+01 4.212371790748045686e-01
2.014000000000000057e+01 4.186004884049978059e-01
2.035999999999999943e+01 4.109668173159978233e-01
2.057999999999999829e+01 4.064910811521979528e-01
2.080000000000000071e+01 4.043397243820043840e-01
2.101999999999999957e+01 3.976201350769979492e-01
2.123999999999999844e+01 3.956907695971979555e-01
2.146000000000000085e+01 3.890310308852042986e-01
2.167999999999999972e+01 3.856445755139979448e-01
2.189999999999999858e+01 3.794255548049980109e-01
2.212000000000000099e+01 3.773590770576041864e-01
2.233999999999999986e+01 3.703511167135981053e-01
2.255999999999999872e+01 3.678188925333980008e-01
2.278000000000000114e+01 3.592994326680039596e-01
2.300000000000000000e+01 3.187196424213983859e-01
3.362500000000000000e+01 1.416750097084999993e+01
4.425000000000000000e+01 1.297440289446250006e+01
5.487500000000000000e+01 1.180816029851875015e+01
6.550000000000000000e+01 1.063703011024374945e+01
7.612500000000000000e+01 9.457333496699998676e+00
8.675000000000000000e+01 8.270384326793751129e+00
9.737500000000000000e+01 7.075341724424999867e+00
1.080000000000000000e+02 5.857700576868748676e+00
1.186250000000000000e+02 5.209337804488125556e+00
1.292500000000000000e+02 4.959739500630000464e+00
1.398750000000000000e+02 4.698200756151874380e+00
1.505000000000000000e+02 4.425336461701874669e+00
1.611250000000000000e+02 4.164239177176249918e+00
1.717500000000000000e+02 3.882035902540624583e+00
1.823750000000000000e+02 3.622546793556249867e+00
1.930000000000000000e+02 3.340369796298750416e+00
2.036250000000000000e+02 3.074111634709374652e+00
2.142500000000000000e+02 2.803228654569999811e+00
2.248750000000000000e+02 2.521892533412500192e+00
2.355000000000000000e+02 2.246137727368749726e+00
2.461250000000000000e+02 1.975175915094999901e+00
2.567500000000000000e+02 1.701707240948124866e+00
2.673750000000000000e+02 1.436437108776249971e+00
2.780000000000000000e+02 1.158348871555000104e+00
2.886250000000000000e+02 8.927896882237499332e-01
2.992500000000000000e+02 6.069075806506248894e-01
3.098750000000000000e+02 4.518474000728124884e-01
3.205000000000000000e+02 4.090073905156250134e-01
3.311250000000000000e+02 4.098776972791249862e-01
3.417500000000000000e+02 3.961088766891874280e-01
3.523750000000000000e+02 3.793370773271249607e-01
3.630000000000000000e+02 3.726526378796874983e-01
3.736250000000000000e+02 3.661053663460624441e-01
3.842500000000000000e+02 3.578211601183750035e-01
3.948750000000000000e+02 3.512024141162499724e-01
4.055000000000000000e+02 3.438163686728750168e-01
4.161250000000000000e+02 3.364655349161875253e-01
4.267500000000000000e+02 3.259855909723750056e-01
4.373750000000000000e+02 3.176672241531249830e-01
4.480000000000000000e+02 3.071368276433125155e-01
4.586250000000000000e+02 3.018881841366250485e-01
4.692500000000000000e+02 2.936701969018124525e-01
4.798750000000000000e+02 2.854658739036249893e-01
4.905000000000000000e+02 2.778480619851875222e-01
5.011250000000000000e+02 2.688417534066249726e-01
5.117500000000000000e+02 2.621210511773749974e-01
5.223750000000000000e+02 2.545500129920000298e-01
5.330000000000000000e+02 2.425874993743749874e-01
5.436250000000000000e+02 2.345213953851250088e-01
5.542500000000000000e+02 2.255502984932500066e-01
5.648750000000000000e+02 2.155039312885000113e-01
5.755000000000000000e+02 2.072417980584375097e-01
5.861250000000000000e+02 1.970062337311875023e-01
5.967500000000000000e+02 1.934120139512499614e-01
6.073750000000000000e+02 1.899003051386249918e-01
6.180000000000000000e+02 1.835543183214375096e-01
6.286250000000000000e+02 1.824044202546874771e-01
6.392500000000000000e+02 1.806674855606250074e-01
6.498750000000000000e+02 1.787907552149375079e-01
6.605000000000000000e+02 1.771878351493124948e-01
6.711250000000000000e+02 1.739220825959374994e-01
6.817500000000000000e+02 1.726040093091875116e-01
6.923750000000000000e+02 1.714930017620625025e-01
7.030000000000000000e+02 1.693960669876874992e-01
7.136250000000000000e+02 1.657146063123750013e-01
7.242500000000000000e+02 1.635136131206250121e-01
7.348750000000000000e+02 1.625229559653124933e-01
7.455000000000000000e+02 1.600360648995624857e-01
7.561250000000000000e+02 1.567813488449999737e-01
7.667500000000000000e+02 1.547805892745624801e-01
7.773750000000000000e+02 1.525522676095624752e-01
7.880000000000000000e+02 1.514591286795625158e-01
7.986250000000000000e+02 1.506292890783750005e-01
8.092500000000000000e+02 1.487772594681249783e-01
8.198750000000000000e+02 1.460107770991249665e-01
8.305000000000000000e+02 1.431018713406874976e-01
8.411250000000000000e+02 1.422883237139374868e-01
8.517500000000000000e+02 1.389143083626875053e-01
8.623750000000000000e+02 1.404662503147499908e-01
8.730000000000000000e+02 1.367705998552500024e-01
8.836250000000000000e+02 1.369130232446874873e-01
8.942500000000000000e+02 1.345764387818124963e-01
9.048750000000000000e+02 1.319518542546875006e-01
9.155000000000000000e+02 1.303284378341249827e-01
9.261250000000000000e+02 1.293971675533749921e-01
9.367500000000000000e+02 1.281910358974374942e-01
9.473750000000000000e+02 1.254445243358124906e-01
9.580000000000000000e+02 1.250561446871250038e-01
9.686250000000000000e+02 1.232466844294375086e-01
9.792500000000000000e+02 1.223774287610625011e-01
9.898750000000000000e+02 1.202132238986875074e-01
1.000500000000000000e+03 1.191442601565624870e-01
1.011125000000000000e+03 1.154943323349999773e-01
1.021750000000000000e+03 1.139655144756874933e-01
1.032375000000000000e+03 1.121776016680624821e-01
1.043000000000000000e+03 1.111648715151250105e-01
1.053625000000000000e+03 1.095351485238124922e-01
1.064250000000000000e+03 1.098562580844999886e-01
1.074875000000000000e+03 1.096833529364375226e-01
