#restgasthickness from integral over pressure profile in 10^12 atoms/cm^2 
#pressure profile from monte-carlo simulation with 0.01mbar*l/s gasload at IP
#each thickness value for the range between z and z-1
#assumed target density in the interaction point 1*10^15 atmons/cm^2 (z=-1cm to z=0cm to z=1cm each 5*10^14)
#
#"Normal IP" is the original PANDA IP geometry with 140mm upstream beam pipe
#"Big Ip" is the umpstream beam pipe with 140 mm diameter pulled through to z=6cm
#
#Z/cm	BigIP/10^12atoms/cm^2
-5.701000000000000227e+02 0.000000000000000000e+00
-5.644015000000000555e+02 6.581444528109937631e-01
-5.587029999999999745e+02 6.495108783920251483e-01
-5.530045000000000073e+02 6.400373414601817634e-01
-5.473060000000000400e+02 6.426925249739527946e-01
-5.416075000000000728e+02 6.865115089496256484e-01
-5.359089999999999918e+02 7.529333767861727811e-01
-5.302105000000000246e+02 8.142168162303281553e-01
-5.245120000000000573e+02 8.739950879501319214e-01
-5.188134999999999764e+02 9.332011704414026054e-01
-5.131150000000000091e+02 9.899944747078082141e-01
-5.074165000000000418e+02 1.046381891048560497e+00
-5.017180000000000177e+02 1.103626181899075798e+00
-4.960194999999999936e+02 1.159435771678975824e+00
-4.903210000000000264e+02 1.215614606724579438e+00
-4.846225000000000023e+02 1.269817556798706670e+00
-4.789240000000000350e+02 1.326994199661586160e+00
-4.732255000000000109e+02 1.381642498987493806e+00
-4.675270000000000437e+02 1.436448643617801446e+00
-4.618285000000000196e+02 1.492232865402361774e+00
-4.561299999999999955e+02 1.546390716818069277e+00
-4.504315000000000282e+02 1.602251042588662244e+00
-4.447330000000000041e+02 1.656510365985803812e+00
-4.390344999999999800e+02 1.711513817246660851e+00
-4.333360000000000127e+02 1.765761865979166512e+00
-4.276375000000000455e+02 1.821097919845781732e+00
-4.219390000000000214e+02 1.876338139063298938e+00
-4.162404999999999973e+02 1.927956372277406238e+00
-4.105420000000000300e+02 1.979684533471362418e+00
-4.048435000000000059e+02 2.033574611602792181e+00
-3.991449999999999818e+02 2.086424601924667499e+00
-3.934465000000000146e+02 2.140720567981727385e+00
-3.877480000000000473e+02 2.194514811464020276e+00
-3.820495000000000232e+02 2.248027188331284343e+00
-3.763509999999999991e+02 2.299028133658431727e+00
-3.706525000000000318e+02 2.354874366098264726e+00
-3.649540000000000077e+02 2.405446874170559024e+00
-3.592554999999999836e+02 2.464500748689685494e+00
-3.535570000000000164e+02 2.503102381620758266e+00
-3.478585000000000491e+02 2.509004668539905225e+00
-3.421600000000000250e+02 2.513672379685158109e+00
-3.364615000000000009e+02 2.520065114514492333e+00
-3.307630000000000337e+02 2.524453777710795599e+00
-3.250645000000000664e+02 2.523472881890421515e+00
-3.193659999999999854e+02 2.518822082742147028e+00
-3.136675000000000182e+02 2.508556500621975438e+00
-3.079689999999999941e+02 2.539544916280597864e+00
-3.022705000000000268e+02 2.646688053993377476e+00
-2.965720000000000027e+02 2.786025996477221600e+00
-2.908735000000000355e+02 2.917770452351562849e+00
-2.851750000000000114e+02 3.043088349402823134e+00
-2.794764999999999873e+02 3.169082726330173294e+00
-2.737780000000000200e+02 3.284817158469671039e+00
-2.680794999999999959e+02 3.406583536171304605e+00
-2.623810000000000286e+02 3.522684394910365224e+00
-2.566825000000000045e+02 3.641885786415045345e+00
-2.509839999999999804e+02 3.754914299050095217e+00
-2.452855000000000132e+02 3.878569183072492432e+00
-2.395869999999999891e+02 3.992189615599186947e+00
-2.338885000000000218e+02 4.107303941185565854e+00
-2.281899999999999977e+02 4.223799413185772345e+00
-2.224915000000000305e+02 4.338519125511080432e+00
-2.167930000000000064e+02 4.455352837449347625e+00
-2.110944999999999823e+02 4.571932869434029989e+00
-2.053960000000000150e+02 4.687667301573513079e+00
-1.996975000000000477e+02 4.799793841040402853e+00
-1.939990000000000236e+02 4.916965792916736966e+00
-1.883004999999999995e+02 5.030078865536300903e+00
-1.826019999999999754e+02 5.146348844244426957e+00
-1.769035000000000082e+02 5.263633542766680051e+00
-1.712050000000000409e+02 5.375901015541094452e+00
-1.655065000000000168e+02 5.489972434651883226e+00
-1.598079999999999927e+02 5.605904173421948578e+00
-1.541094999999999686e+02 5.719242739333553871e+00
-1.484110000000000014e+02 5.833314158444231623e+00
-1.427125000000000341e+02 5.950260617028475529e+00
-1.370140000000000100e+02 6.067488942227830861e+00
-1.313154999999999859e+02 6.183279747690370698e+00
-1.256170000000000186e+02 6.303185805732579361e+00
-1.199184999999999945e+02 6.413170158925152187e+00
-1.142200000000000273e+02 6.529299204325687889e+00
-1.085215000000000600e+02 6.642863263529331874e+00
-1.028229999999999791e+02 6.758710442315016387e+00
-9.712450000000001182e+01 6.874726741069460800e+00
-9.142599999999998772e+01 6.990263866578525054e+00
-8.572750000000002046e+01 7.110790031173834791e+00
-8.002900000000005321e+01 7.222860197317712228e+00
-7.433049999999997226e+01 7.339186549348992727e+00
-6.863200000000000500e+01 7.457034981101251958e+00
-6.293349999999998090e+01 7.569894373767346529e+00
-5.723500000000001364e+01 7.685572432583789748e+00
-5.153650000000004638e+01 7.806775077055290168e+00
-4.583799999999996544e+01 7.925525481976011477e+00
-4.013949999999999818e+01 8.041795460683978547e+00
-3.444100000000003092e+01 8.163420905078053735e+00
-2.874250000000006366e+01 8.283975256334938919e+00
-2.304399999999998272e+01 8.407658327019044364e+00
-1.734550000000001546e+01 8.532863477424085019e+00
-1.164700000000004820e+01 8.666891052880359325e+00
-5.948499999999967258e+00 8.800721321706275191e+00
-1.000000000000000056e-01 1.033770799273088414e+01
0.000000000000000000e+00 5.000000000000000000e+02
1.000000000000000000e+00 5.000000000000000000e+02
1.219999999999999973e+00 3.882235919759999820e-01
1.439999999999999947e+00 3.765429326075999117e-01
1.660000000000000142e+00 3.715916562776003240e-01
1.879999999999999893e+00 3.679211826377994932e-01
2.100000000000000089e+00 3.662072792928002807e-01
2.320000000000000284e+00 3.636130281344003845e-01
2.540000000000000036e+00 3.629579361891995815e-01
2.759999999999999787e+00 3.626423603351995317e-01
2.979999999999999982e+00 3.618338332334002927e-01
3.200000000000000178e+00 3.612364154960002738e-01
3.419999999999999929e+00 3.594898663729995669e-01
3.640000000000000124e+00 3.597325333228003075e-01
3.859999999999999876e+00 3.599218788351995491e-01
4.080000000000000071e+00 3.578151379616003047e-01
4.299999999999999822e+00 3.590197671697995530e-01
4.519999999999999574e+00 3.583690279949995339e-01
4.740000000000000213e+00 3.571916036018009666e-01
4.959999999999999964e+00 3.562437878471996222e-01
5.179999999999999716e+00 3.559271238005995985e-01
5.400000000000000355e+00 3.548193437338010292e-01
5.620000000000000107e+00 3.530488543735996188e-01
5.839999999999999858e+00 3.513937134289996100e-01
6.059999999999999609e+00 3.470474721845995814e-01
6.280000000000000249e+00 3.440734418088010060e-01
6.500000000000000000e+00 3.409655637431996400e-01
6.719999999999999751e+00 3.370992154353996129e-01
6.940000000000000391e+00 3.336485567008010134e-01
7.160000000000000142e+00 3.326735361311996542e-01
7.379999999999999893e+00 3.283414413905996199e-01
7.599999999999999645e+00 3.267320045351996272e-01
7.820000000000000284e+00 3.237699442780009318e-01
8.039999999999999147e+00 3.202300537501983624e-01
8.259999999999999787e+00 3.174312223830009771e-01
8.480000000000000426e+00 3.160024254992009340e-01
8.699999999999999289e+00 3.118944984341984195e-01
8.919999999999999929e+00 3.102665623046009236e-01
9.140000000000000568e+00 3.066777031098008588e-01
9.359999999999999432e+00 3.048636860455984365e-01
9.580000000000000071e+00 3.028374714244008725e-01
9.800000000000000711e+00 2.997850911814008423e-01
1.001999999999999957e+01 2.973486279499984453e-01
1.024000000000000021e+01 2.947108490876008680e-01
1.046000000000000085e+01 2.912841305902008626e-01
1.067999999999999972e+01 2.898542455137985141e-01
1.090000000000000036e+01 2.870597669170008026e-01
1.111999999999999922e+01 2.833620884621985136e-01
1.133999999999999986e+01 2.823783623518008046e-01
1.156000000000000050e+01 2.796393815776007652e-01
1.177999999999999936e+01 2.778275408985985684e-01
1.200000000000000000e+01 2.743072378376008036e-01
1.222000000000000064e+01 2.725389248626007843e-01
1.243999999999999950e+01 2.698891758815986086e-01
1.266000000000000014e+01 2.682340349370007648e-01
1.288000000000000078e+01 2.648584614918008118e-01
1.309999999999999964e+01 2.627745726627985778e-01
1.332000000000000028e+01 2.599452719028007008e-01
1.353999999999999915e+01 2.577645339323986207e-01
1.375999999999999979e+01 2.549907309950006917e-01
1.398000000000000043e+01 2.523692750216007252e-01
1.419999999999999929e+01 2.508403644185986936e-01
1.441999999999999993e+01 2.487956505232007676e-01
1.464000000000000057e+01 2.461012856456007147e-01
1.485999999999999943e+01 2.445680222721987596e-01
1.508000000000000007e+01 2.414960545624006694e-01
1.530000000000000071e+01 2.391858216726006625e-01
1.551999999999999957e+01 2.357721614863987625e-01
1.574000000000000021e+01 2.344641539812006847e-01
1.596000000000000085e+01 2.324814670640006908e-01
1.617999999999999972e+01 2.297011349709987826e-01
1.639999999999999858e+01 2.277913569579988473e-01
1.661999999999999744e+01 2.257966999221988347e-01
1.683999999999999986e+01 2.231045114298024212e-01
1.705999999999999872e+01 2.216670090051988395e-01
1.728000000000000114e+01 2.178126308160023838e-01
1.750000000000000000e+01 2.166624112377988631e-01
1.771999999999999886e+01 2.130594055391989150e-01
1.794000000000000128e+01 2.108928140726023248e-01
1.816000000000000014e+01 2.090537685785988642e-01
1.837999999999999901e+01 2.070079664905989381e-01
1.860000000000000142e+01 2.042755148720022118e-01
1.882000000000000028e+01 2.016192367353989157e-01
1.903999999999999915e+01 2.007269188033989349e-01
1.926000000000000156e+01 1.973437280100021618e-01
1.948000000000000043e+01 1.944066961825989537e-01
1.969999999999999929e+01 1.927047629561990105e-01
1.992000000000000171e+01 1.908657174622021002e-01
2.014000000000000057e+01 1.880723270579990336e-01
2.035999999999999943e+01 1.859525278731990194e-01
2.057999999999999829e+01 1.830274661643990497e-01
2.080000000000000071e+01 1.802634569604019688e-01
2.101999999999999957e+01 1.790533867891990483e-01
2.123999999999999844e+01 1.772252232211990741e-01
2.146000000000000085e+01 1.748486105828019055e-01
2.167999999999999972e+01 1.720737194527990899e-01
2.189999999999999858e+01 1.687155570891991085e-01
2.212000000000000099e+01 1.672595553904018262e-01
2.233999999999999986e+01 1.647871818031991231e-01
2.255999999999999872e+01 1.625933855215991597e-01
2.278000000000000114e+01 1.575049969240017167e-01
2.300000000000000000e+01 1.548791881801991899e-01
3.362500000000000000e+01 6.911843877731249641e+00
4.425000000000000000e+01 6.354237913918749037e+00
5.487500000000000000e+01 5.778763332981249334e+00
6.550000000000000000e+01 5.196782473219999865e+00
7.612500000000000000e+01 4.627514608995624279e+00
8.675000000000000000e+01 4.053574626940624981e+00
9.737500000000000000e+01 3.479666177739374699e+00
1.080000000000000000e+02 2.882927942423124890e+00
1.186250000000000000e+02 2.569643784941249898e+00
1.292500000000000000e+02 2.443202296879375179e+00
1.398750000000000000e+02 2.312041391706250337e+00
1.505000000000000000e+02 2.181300924583124967e+00
1.611250000000000000e+02 2.045725419885000118e+00
1.717500000000000000e+02 1.914559259236249922e+00
1.823750000000000000e+02 1.784438938236875050e+00
1.930000000000000000e+02 1.652389857683124852e+00
2.036250000000000000e+02 1.518858733003125128e+00
2.142500000000000000e+02 1.383277972829375146e+00
2.248750000000000000e+02 1.250561446871250038e+00
2.355000000000000000e+02 1.119679081906250095e+00
2.461250000000000000e+02 9.889386147831249474e-01
2.567500000000000000e+02 8.523382923381249698e-01
2.673750000000000000e+02 7.165683350418750042e-01
2.780000000000000000e+02 5.791166255456249301e-01
2.886250000000000000e+02 4.418935292390625547e-01
2.992500000000000000e+02 3.006021692511874899e-01
3.098750000000000000e+02 2.254945904516250099e-01
3.205000000000000000e+02 2.016158114018749836e-01
3.311250000000000000e+02 2.013656507621249814e-01
3.417500000000000000e+02 1.968380585111874914e-01
3.523750000000000000e+02 1.867769759746874814e-01
3.630000000000000000e+02 1.810537630190624803e-01
3.736250000000000000e+02 1.790803319218749745e-01
3.842500000000000000e+02 1.753699661306249991e-01
3.948750000000000000e+02 1.718587828655624983e-01
4.055000000000000000e+02 1.678409717502499787e-01
4.161250000000000000e+02 1.645962410993750125e-01
4.267500000000000000e+02 1.599430429809999832e-01
4.373750000000000000e+02 1.562894363264999975e-01
4.480000000000000000e+02 1.522090850512499982e-01
4.586250000000000000e+02 1.486253762225624997e-01
4.692500000000000000e+02 1.440399737397500268e-01
4.798750000000000000e+02 1.398881479959999952e-01
4.905000000000000000e+02 1.356401470483124816e-01
5.011250000000000000e+02 1.313385402492499854e-01
5.117500000000000000e+02 1.269155319632499779e-01
5.223750000000000000e+02 1.230606405923124896e-01
5.330000000000000000e+02 1.184536906594375050e-01
5.436250000000000000e+02 1.145777773859999876e-01
5.542500000000000000e+02 1.098841121053124870e-01
5.648750000000000000e+02 1.055451914293124988e-01
5.755000000000000000e+02 1.007621830630000132e-01
5.861250000000000000e+02 9.614577327399997930e-02
5.967500000000000000e+02 9.428060497468748746e-02
6.073750000000000000e+02 9.224883809806250223e-02
6.180000000000000000e+02 9.078518813649999464e-02
6.286250000000000000e+02 8.939301264343749165e-02
6.392500000000000000e+02 8.830302699881249773e-02
6.498750000000000000e+02 8.752153777337498552e-02
6.605000000000000000e+02 8.685882229706250179e-02
6.711250000000000000e+02 8.543669059293750034e-02
6.817500000000000000e+02 8.458267580387500428e-02
6.923750000000000000e+02 8.329350763306250793e-02
7.030000000000000000e+02 8.236486509012498625e-02
7.136250000000000000e+02 8.140416414587500760e-02
7.242500000000000000e+02 8.070045595968750041e-02
7.348750000000000000e+02 7.903394463900000055e-02
7.455000000000000000e+02 7.877747742849999790e-02
7.561250000000000000e+02 7.752982751512499382e-02
7.667500000000000000e+02 7.662588570762499107e-02
7.773750000000000000e+02 7.566728695362499868e-02
7.880000000000000000e+02 7.453420640887500892e-02
7.986250000000000000e+02 7.320877545624999982e-02
8.092500000000000000e+02 7.267114029981248946e-02
8.198750000000000000e+02 7.183762186568748431e-02
8.305000000000000000e+02 7.088638077756249933e-02
8.411250000000000000e+02 6.966553378987498657e-02
8.517500000000000000e+02 6.870746058343750462e-02
8.623750000000000000e+02 6.807365022306248459e-02
8.730000000000000000e+02 6.743038000656249864e-02
8.836250000000000000e+02 6.652170827099999906e-02
8.942500000000000000e+02 6.559201463293748424e-02
9.048750000000000000e+02 6.462553266550000175e-02
9.155000000000000000e+02 6.387610184137500202e-02
9.261250000000000000e+02 6.322337176874999465e-02
9.367500000000000000e+02 6.307253961831249534e-02
9.473750000000000000e+02 6.219329854624999765e-02
9.580000000000000000e+02 6.143651005624999051e-02
9.686250000000000000e+02 6.071966318099998594e-02
9.792500000000000000e+02 5.962337096562499161e-02
9.898750000000000000e+02 5.881350217181249840e-02
1.000500000000000000e+03 5.840410062062500324e-02
1.011125000000000000e+03 5.737455294568750280e-02
1.021750000000000000e+03 5.703347257762499817e-02
1.032375000000000000e+03 5.643487390393750469e-02
1.043000000000000000e+03 5.543843572543749598e-02
1.053625000000000000e+03 5.451820194349998872e-02
1.064250000000000000e+03 5.397268357362499519e-02
1.074875000000000000e+03 5.405361789824999347e-02
